{
  "project_info": {
    "project_number": "407828485622",
    "firebase_url": "https://ordenes-servicio-81675.firebaseio.com",
    "project_id": "ordenes-servicio-81675",
    "storage_bucket": "ordenes-servicio-81675.appspot.com"
  },
  "client": [
    {
      "client_info": {
        "mobilesdk_app_id": "1:407828485622:android:52577194380b7cbb5d63d7",
        "android_client_info": {
          "package_name": "com.gc.ordenesservicio"
        }
      },
      "oauth_client": [
        {
          "client_id": "407828485622-bnerfbua0n0b9ndf4oddhq20lab355ht.apps.googleusercontent.com",
          "client_type": 1,
          "android_info": {
            "package_name": "com.gc.ordenesservicio",
            "certificate_hash": "de3d5a1e3ece258c945f9b98090fab770ab9ac5d"
          }
        },
        {
          "client_id": "407828485622-83j89g01jvuvv8ktdsu3jjd1ja3gghoa.apps.googleusercontent.com",
          "client_type": 3
        }
      ],
      "api_key": [
        {
          "current_key": "AIzaSyBNslGwygo9YXvBn2ampoaqJmyAVEwCWJc"
        }
      ],
      "services": {
        "appinvite_service": {
          "other_platform_oauth_client": [
            {
              "client_id": "407828485622-83j89g01jvuvv8ktdsu3jjd1ja3gghoa.apps.googleusercontent.com",
              "client_type": 3
            }
          ]
        }
      }
    },
    {
      "client_info": {
        "mobilesdk_app_id": "1:407828485622:android:21f19252b60031f15d63d7",
        "android_client_info": {
          "package_name": "com.gc.ordenesservicio.firebase"
        }
      },
      "oauth_client": [
        {
          "client_id": "407828485622-83j89g01jvuvv8ktdsu3jjd1ja3gghoa.apps.googleusercontent.com",
          "client_type": 3
        }
      ],
      "api_key": [
        {
          "current_key": "AIzaSyBNslGwygo9YXvBn2ampoaqJmyAVEwCWJc"
        }
      ],
      "services": {
        "appinvite_service": {
          "other_platform_oauth_client": [
            {
              "client_id": "407828485622-83j89g01jvuvv8ktdsu3jjd1ja3gghoa.apps.googleusercontent.com",
              "client_type": 3
            }
          ]
        }
      }
    },
    {
      "client_info": {
        "mobilesdk_app_id": "1:407828485622:android:aa06d36d9914fec75d63d7",
        "android_client_info": {
          "package_name": "com.orden.servicio"
        }
      },
      "oauth_client": [
        {
          "client_id": "407828485622-83j89g01jvuvv8ktdsu3jjd1ja3gghoa.apps.googleusercontent.com",
          "client_type": 3
        }
      ],
      "api_key": [
        {
          "current_key": "AIzaSyBNslGwygo9YXvBn2ampoaqJmyAVEwCWJc"
        }
      ],
      "services": {
        "appinvite_service": {
          "other_platform_oauth_client": [
            {
              "client_id": "407828485622-83j89g01jvuvv8ktdsu3jjd1ja3gghoa.apps.googleusercontent.com",
              "client_type": 3
            }
          ]
        }
      }
    }
  ],
  "configuration_version": "1"
}